{
  "$schema": "../../node_modules/@tramvai/cli/schema.json",
  "projects": {
    "react-18-integration" : {
      "name": "react-18-integration",
      "root": "src",
      "type": "application",
      "commands": {
        "build": {
          "options": {
            "server": "src/index.ts",
            "vendor": "src/vendor.ts"
          },
          "configurations": {
            "sourceMap": true,
            "modern": true,
            "granularChunks": true,
            "postcss": {
              "config": "src/postcss",
              "cssLocalIdentName": "[name]__[local]_[hash:base64:5]"
            },
            "experiments": {
              "fileSystemPages": {
                "enable": true,
                "pagesDir": false
              }
            }
          }
        },
        "serve": {
          "configurations": {
            "hotRefresh": true,
            "modern": true
          }
        }
      }
    }
  }
}
